{
  "general":
    {
      "name": "name",
      "fio": "fio",
      "max": "max",
      "min": "min",
      "list": "list"
    },
  "dictionary":
      [
        {
          "position1": "Бухгалтер",
          "position2": "Бухгалтера"
        },
        {
          "position1": "Начальник",
          "position2": "Начальника"
        },
        {
          "position1": "Повар",
          "position2": "Повара"
        }
      ],
  "history":
    [
      {
        "dateChange": "10.1.17",
        "who": "Alexander",
        "what": "Справочник",
        "old": "Админ",
        "new": "Администратор"
      },
      {
        "dateChange": "11.1.17",
        "who": "Alexander",
        "what": "Справочник",
        "old": "User",
        "new": "Пользователь"
      }
    ]
}