{
    "id": 1,
    "position_name": "\u0438\u043d\u0436\u0435\u043d\u0435\u0440-\u043f\u0440\u043e\u0433\u0440\u0430\u043c\u043c\u0438\u0441\u0442",
    "position_name_case": "\u0438\u043d\u0436\u0435\u043d\u0435\u0440\u0430-\u043f\u0440\u043e\u0433\u0440\u0430\u043c\u043c\u0438\u0441\u0442\u0430"
}