[
  {
    "color":"orange",
    "id":0,
    "name":"1",
    "send":"2017-02-11T13:00:00.000Z",
    "start":"2017-02-13T13:00:00.000Z",
    "end":"2017-02-15T13:00:00.000Z",
    "status":"wait"
  },
  {
    "id":1,
    "name":"2",
    "send":"2017-02-14T13:00:00.000Z",
    "start":"2017-02-16T13:00:00.000Z",
    "end":"2017-02-15T19:00:00.000Z",
    "status":"wait"
  }
]